{
  "description": "Het ontsluiten van zaken / contractgegevens via het MijnApp concept.",
  "organization_name": "Eindhoven",
  "service_name": "Contracten API",
  "api_type": "REST/JSON",
  "api_authentication": "Onbekend",
  "tags": ["zaken", "contractgegevens", "mijnapp"],
  "environments": [{
    "name": "Productie",
    "api_url": "https://testen.solviteers.nl/MijnApp/api",
    "specification_url": "https://raw.githubusercontent.com/solviteers/mijnapp-api/master/contracten-api.yaml",
    "documentation_url": "https://solviteers.github.io/mijnapp-api-contracts-docs-redoc/"
  }],
  "contact": {
    "email": "helpdesk@solviteers.nl"
  }
}
