{
  "badges": [
    {
      "name": "Gouden API",
      "apis": [
        "kadaster-bag"
      ]
    },
    {
      "name": "BRP",
      "apis": [
          "vng-bevraging-ingeschreven-persoon"
      ]
    },
    {
      "name": "Persoonsgegevens",
      "apis": [
          "vng-bevraging-ingeschreven-persoon"
      ]
    },
    {
      "name": "Ingeschreven persoon",
      "apis": [
          "vng-bevraging-ingeschreven-persoon"
      ]
    },
    {
      "name": "Gemeente",
      "apis": [
          "vng-bevraging-ingeschreven-persoon"
      ]
    }
  ]
}
